0 : (drive_t1 g1 c)
1 : (drive_t1 c g1)
2 : (drive_t1 g1 c)
3 : (drive_t1 c h1)
4 : (enter_p1 t1 h1)
5 : (drive_t1 h1 c)
6 : (exit_p1 t1 c)
7 : (drive_t1 c h2)
8 : (enter_p2 t1 h2)
9 : (drive_t1 h2 c)
10 : (exit_p2 t1 c)
11 : (drive_t1 c h3)
12 : (enter_p3 t1 h3)
13 : (drive_t1 h3 c)
14 : (exit_p3 t1 c)
15 : (drive_t1 c g1)
