0 : (unload-truck tru2 obj22 apt2)
1 : (unload-truck tru1 obj13 apt1)
2 : (unload-truck tru1 obj12 apt1)
3 : (unload-truck tru1 obj11 apt1)
4 : (load-airplane apn1 obj22 apt2)
5 : (load-airplane apn1 obj13 apt1)
6 : (load-airplane apn1 obj12 apt1)
7 : (load-airplane apn1 obj11 apt1)
8 : (unload-truck tru2 obj23 apt2)
9 : (unload-airplane apn1 obj22 apt1)
10 : (unload-airplane apn1 obj13 apt2)
11 : (unload-airplane apn1 obj12 apt2)
12 : (unload-airplane apn1 obj11 apt2)
