0 : (board plane1 person6 city0)
1 : (board plane1 person8 city0)
2 : (fly plane1 city0 city3 fl2 fl1)
3 : (board plane1 person1 city3)
4 : (board plane1 person2 city3)
5 : (fly plane1 city3 city4 fl1 fl0)
6 : (board plane1 person3 city4)
7 : (board plane1 person4 city4)
8 : (refuel plane1 city4 fl0 fl1)
9 : (fly plane1 city4 city1 fl1 fl0)
10 : (board plane1 person5 city1)
11 : (board plane1 person7 city1)
12 : (refuel plane1 city1 fl0 fl1)
13 : (fly plane1 city1 city3 fl1 fl0)
14 : (debark plane1 person6 city3)
15 : (debark plane1 person8 city3)
16 : (refuel plane1 city3 fl0 fl1)
17 : (fly plane1 city3 city1 fl1 fl0)
18 : (debark plane1 person1 city1)
19 : (refuel plane1 city1 fl0 fl1)
20 : (fly plane1 city1 city2 fl1 fl0)
21 : (debark plane1 person2 city2)
22 : (refuel plane1 city2 fl0 fl1)
23 : (fly plane1 city2 city3 fl1 fl0)
24 : (debark plane1 person3 city3)
25 : (refuel plane1 city3 fl0 fl1)
26 : (fly plane1 city3 city1 fl1 fl0)
27 : (debark plane1 person4 city1)
28 : (refuel plane1 city1 fl0 fl1)
29 : (fly plane1 city1 city0 fl1 fl0)
30 : (debark plane1 person5 city0)
31 : (refuel plane1 city0 fl0 fl1)
32 : (fly plane1 city0 city4 fl1 fl0)
33 : (debark plane1 person7 city4)
