0 : (move-up-fast fast0 n12 n16)
1 : (board fast0 p10 n16 n0 n1)
2 : (board fast0 p15 n16 n1 n2)
3 : (move-down-fast fast0 n16 n4)
4 : (board fast0 p8 n4 n2 n3)
5 : (board fast0 p12 n4 n3 n4)
6 : (move-up-fast fast0 n4 n12)
7 : (leave fast0 p8 n12 n4 n3)
8 : (leave fast0 p12 n12 n3 n2)
9 : (move-down-fast fast0 n12 n0)
10 : (leave fast0 p10 n0 n2 n1)
11 : (board slow0-0 p5 n8 n0 n1)
12 : (move-up-fast fast0 n0 n4)
13 : (leave fast0 p15 n4 n1 n0)
14 : (board slow0-0 p14 n8 n1 n2)
15 : (move-down-slow slow0-0 n8 n0)
16 : (board slow0-0 p10 n0 n2 n3)
17 : (move-up-slow slow0-0 n0 n2)
18 : (leave slow0-0 p10 n2 n3 n2)
19 : (board slow0-0 p16 n2 n2 n3)
20 : (move-up-slow slow0-0 n2 n3)
21 : (leave slow0-0 p5 n3 n3 n2)
22 : (board slow0-0 p6 n3 n2 n3)
23 : (move-up-slow slow0-0 n3 n8)
24 : (leave slow0-0 p6 n8 n3 n2)
25 : (move-down-slow slow0-0 n8 n5)
26 : (board slow0-0 p18 n5 n2 n3)
27 : (move-down-slow slow0-0 n5 n0)
28 : (leave slow0-0 p18 n0 n3 n2)
29 : (move-up-slow slow0-0 n0 n6)
30 : (board slow0-0 p0 n6 n2 n3)
31 : (move-down-slow slow0-0 n6 n4)
32 : (leave slow0-0 p0 n4 n3 n2)
33 : (move-up-slow slow0-0 n4 n6)
34 : (board slow0-0 p17 n6 n2 n3)
35 : (move-down-slow slow0-0 n6 n3)
36 : (leave slow0-0 p17 n3 n3 n2)
37 : (move-up-slow slow0-0 n3 n6)
38 : (leave slow0-0 p16 n6 n2 n1)
39 : (move-up-slow slow0-0 n6 n7)
40 : (leave slow0-0 p14 n7 n1 n0)
41 : (board slow1-0 p11 n12 n0 n1)
42 : (board slow1-0 p12 n12 n1 n2)
43 : (move-up-slow slow1-0 n12 n15)
44 : (board slow1-0 p2 n15 n2 n3)
45 : (move-down-slow slow1-0 n15 n13)
46 : (leave slow1-0 p2 n13 n3 n2)
47 : (move-down-slow slow1-0 n13 n8)
48 : (board slow1-0 p6 n8 n2 n3)
49 : (move-up-slow slow1-0 n8 n13)
50 : (leave slow1-0 p6 n13 n3 n2)
51 : (move-down-slow slow1-0 n13 n9)
52 : (board slow1-0 p1 n9 n2 n3)
53 : (move-up-slow slow1-0 n9 n13)
54 : (leave slow1-0 p1 n13 n3 n2)
55 : (move-down-slow slow1-0 n13 n10)
56 : (board slow1-0 p7 n10 n2 n3)
57 : (move-up-slow slow1-0 n10 n14)
58 : (leave slow1-0 p7 n14 n3 n2)
59 : (move-down-slow slow1-0 n14 n10)
60 : (board slow1-0 p13 n10 n2 n3)
61 : (move-up-slow slow1-0 n10 n11)
62 : (leave slow1-0 p11 n11 n3 n2)
63 : (leave slow1-0 p12 n11 n2 n1)
64 : (move-up-slow slow1-0 n11 n13)
65 : (board slow1-0 p2 n13 n1 n2)
66 : (move-down-slow slow1-0 n13 n12)
67 : (leave slow1-0 p2 n12 n2 n1)
68 : (move-up-slow slow1-0 n12 n13)
69 : (board slow1-0 p1 n13 n1 n2)
70 : (move-down-slow slow1-0 n13 n12)
71 : (leave slow1-0 p1 n12 n2 n1)
72 : (move-up-fast fast0 n4 n12)
73 : (board fast0 p1 n12 n0 n1)
74 : (move-down-fast fast0 n12 n0)
75 : (leave fast0 p1 n0 n1 n0)
76 : (move-up-slow slow1-0 n12 n13)
77 : (board slow1-0 p9 n13 n1 n2)
78 : (move-up-slow slow1-0 n13 n15)
79 : (leave slow1-0 p9 n15 n2 n1)
80 : (move-down-slow slow1-0 n15 n14)
81 : (board slow1-0 p7 n14 n1 n2)
82 : (move-up-slow slow1-0 n14 n15)
83 : (leave slow1-0 p7 n15 n2 n1)
84 : (move-down-slow slow1-0 n15 n14)
85 : (board slow1-0 p4 n14 n1 n2)
86 : (move-up-slow slow1-0 n14 n1