0 : (move-up-fast fast0 n0 n2)
1 : (board fast0 p8 n2 n0 n1)
2 : (move-up-fast fast0 n2 n4)
3 : (board fast0 p7 n4 n1 n2)
4 : (move-up-fast fast0 n4 n8)
5 : (board fast0 p9 n8 n2 n3)
6 : (move-down-fast fast0 n8 n2)
7 : (leave fast0 p7 n2 n3 n2)
8 : (move-up-fast fast0 n2 n4)
9 : (leave fast0 p8 n4 n2 n1)
10 : (move-down-slow slow0-0 n4 n1)
11 : (board slow0-0 p0 n1 n0 n1)
12 : (board slow0-0 p1 n1 n1 n2)
13 : (move-up-slow slow0-0 n1 n4)
14 : (leave slow0-0 p0 n4 n2 n1)
15 : (board fast0 p0 n4 n1 n2)
16 : (move-up-fast fast0 n4 n6)
17 : (leave fast0 p9 n6 n2 n1)
18 : (leave fast0 p0 n6 n1 n0)
19 : (move-down-slow slow0-0 n4 n2)
20 : (board slow0-0 p4 n2 n1 n2)
21 : (move-up-slow slow0-0 n2 n4)
22 : (leave slow0-0 p1 n4 n2 n1)
23 : (move-down-fast fast0 n6 n4)
24 : (board fast0 p1 n4 n0 n1)
25 : (move-up-fast fast0 n4 n8)
26 : (leave fast0 p1 n8 n1 n0)
27 : (move-down-slow slow0-0 n4 n1)
28 : (leave slow0-0 p4 n1 n1 n0)
29 : (board slow1-0 p2 n7 n0 n1)
30 : (board slow1-0 p3 n7 n1 n2)
31 : (move-up-slow slow1-0 n7 n8)
32 : (leave slow1-0 p3 n8 n2 n1)
33 : (board fast0 p3 n8 n0 n1)
34 : (move-down-fast fast0 n8 n0)
35 : (leave fast0 p3 n0 n1 n0)
36 : (move-down-slow slow1-0 n8 n7)
37 : (board slow1-0 p6 n7 n1 n2)
38 : (move-down-slow slow1-0 n7 n4)
39 : (leave slow1-0 p6 n4 n2 n1)
40 : (move-up-slow slow0-0 n1 n4)
41 : (board slow0-0 p6 n4 n0 n1)
42 : (move-down-slow slow0-0 n4 n3)
43 : (leave slow0-0 p6 n3 n1 n0)
44 : (board slow1-0 p8 n4 n1 n2)
45 : (move-up-slow slow1-0 n4 n7)
46 : (leave slow1-0 p8 n7 n2 n1)
47 : (move-down-slow slow1-0 n7 n5)
48 : (board slow1-0 p5 n5 n1 n2)
49 : (move-down-slow slow1-0 n5 n4)
50 : (leave slow1-0 p5 n4 n2 n1)
51 : (move-up-slow slow0-0 n3 n4)
52 : (board slow0-0 p5 n4 n0 n1)
53 : (move-down-slow slow0-0 n4 n3)
54 : (leave slow0-0 p5 n3 n1 n0)
55 : (move-up-slow slow1-0 n4 n5)
56 : (leave slow1-0 p2 n5 n1 n0)
