0 : (drive_t1 g1 c)
1 : (drive_t1 c g1)
2 : (drive_t1 g1 c)
3 : (drive_t1 c h2)
4 : (drive_t1 h2 h1)
5 : (enter_p1 t1 h1)
6 : (drive_t1 h1 h2)
7 : (exit_p1 t1 h2)
8 : (enter_p2 t1 h2)
9 : (drive_t1 h2 h3)
10 : (exit_p2 t1 h3)
11 : (enter_p3 t1 h3)
12 : (drive_t1 h3 c)
13 : (drive_t1 c h2)
14 : (drive_t1 h2 h1)
15 : (exit_p3 t1 h1)
16 : (drive_t1 h1 c)
17 : (drive_t1 c g1)
