0 : (unstack a1 c g)
1 : (unstack a2 g e)
2 : (unstack a3 e i)
3 : (unstack a4 i j)
4 : (stack a2 g j)
5 : (unstack a2 f d)
6 : (put-down a4 i)
7 : (unstack a4 d h)
8 : (put-down a4 d)
9 : (pick-up a4 h)
10 : (put-down a4 h)
11 : (unstack a4 g j)
12 : (put-down a4 g)
13 : (unstack a4 j a)
14 : (put-down a4 j)
15 : (unstack a4 a b)
16 : (put-down a4 a)
17 : (pick-up a4 g)
18 : (stack a4 g j)
19 : (pick-up a4 h)
20 : (stack a4 h g)
21 : (stack a3 e h)
22 : (pick-up a4 a)
23 : (stack a4 a e)
24 : (pick-up a4 i)
25 : (stack a4 i a)
26 : (pick-up a4 d)
27 : (put-down a4 d)
28 : (pick-up a4 b)
29 : (stack a4 b d)
30 : (stack a1 c b)
