0 : (board fast0 p4 n4 n0 n1)
1 : (board fast0 p20 n4 n1 n2)
2 : (move-up-fast fast0 n4 n16)
3 : (board fast0 p17 n16 n2 n3)
4 : (move-down-fast fast0 n16 n4)
5 : (leave fast0 p17 n4 n3 n2)
6 : (move-up-fast fast0 n4 n8)
7 : (leave fast0 p4 n8 n2 n1)
8 : (leave fast0 p20 n8 n1 n0)
9 : (move-up-slow slow0-0 n1 n2)
10 : (board slow0-0 p14 n2 n0 n1)
11 : (move-up-slow slow0-0 n2 n3)
12 : (board slow0-0 p3 n3 n1 n2)
13 : (move-up-slow slow0-0 n3 n4)
14 : (board slow0-0 p17 n4 n2 n3)
15 : (move-up-slow slow0-0 n4 n5)
16 : (leave slow0-0 p3 n5 n3 n2)
17 : (move-down-slow slow0-0 n5 n0)
18 : (board slow0-0 p6 n0 n2 n3)
19 : (move-up-slow slow0-0 n0 n5)
20 : (leave slow0-0 p6 n5 n3 n2)
21 : (move-down-slow slow0-0 n5 n0)
22 : (board slow0-0 p22 n0 n2 n3)
23 : (move-up-slow slow0-0 n0 n2)
24 : (leave slow0-0 p17 n2 n3 n2)
25 : (move-up-slow slow0-0 n2 n5)
26 : (board slow0-0 p6 n5 n2 n3)
27 : (move-down-slow slow0-0 n5 n3)
28 : (leave slow0-0 p6 n3 n3 n2)
29 : (move-up-slow slow0-0 n3 n7)
30 : (board slow0-0 p1 n7 n2 n3)
31 : (move-down-slow slow0-0 n7 n4)
32 : (leave slow0-0 p1 n4 n3 n2)
33 : (move-down-fast fast0 n8 n4)
34 : (board fast0 p1 n4 n0 n1)
35 : (move-up-fast fast0 n4 n12)
36 : (leave fast0 p1 n12 n1 n0)
37 : (move-up-slow slow0-0 n4 n6)
38 : (leave slow0-0 p22 n6 n2 n1)
39 : (move-up-slow slow0-0 n6 n8)
40 : (leave slow0-0 p14 n8 n1 n0)
41 : (move-down-slow slow0-0 n8 n5)
42 : (board slow0-0 p3 n5 n0 n1)
43 : (move-up-slow slow0-0 n5 n8)
44 : (leave slow0-0 p3 n8 n1 n0)
45 : (move-down-slow slow0-0 n8 n5)
46 : (board slow0-0 p2 n5 n0 n1)
47 : (move-up-slow slow0-0 n5 n8)
48 : (leave slow0-0 p2 n8 n1 n0)
49 : (move-down-slow slow0-0 n8 n7)
50 : (board slow0-0 p19 n7 n0 n1)
51 : (move-up-slow slow0-0 n7 n8)
52 : (leave slow0-0 p19 n8 n1 n0)
53 : (move-down-slow slow1-0 n16 n8)
54 : (board slow1-0 p5 n8 n0 n1)
55 : (board slow1-0 p15 n8 n1 n2)
56 : (board slow1-0 p4 n8 n2 n3)
57 : (move-up-slow slow1-0 n8 n9)
58 : (leave slow1-0 p15 n9 n3 n2)
59 : (move-down-slow slow1-0 n9 n8)
60 : (board slow1-0 p20 n8 n2 n3)
61 : (move-up-slow slow1-0 n8 n9)
62 : (leave slow1-0 p5 n9 n3 n2)
63 : (move-down-slow slow1-0 n9 n8)
64 : (board slow1-0 p14 n8 n2 n3)
65 : (move-up-slow slow1-0 n8 n9)
66 : (leave slow1-0 p14 n9 n3 n2)
67 : (move-down-slow slow1-0 n9 n8)
68 : (board slow1-0 p3 n8 n2 n3)
69 : (move-up-slow slow1-0 n8 n9)
70 : (leave slow1-0 p3 n9 n3 n2)
71 : (move-down-slow slow1-0 n9 n8)
72 : (board slow1-0 p2 n8 n2 n3)
73 : (move-up-slow slow1-0 n8 n9)
74 : (leave slow1-0 p2 n9 n3 n2)
75 : (move-down-slow slow1-0 n9 n8)
76 : (board slow1-0 p19 n8 n2 n3)
77 : (move-up-slow slow1-0 n8 n9)
78 : (leave slow1-0 p4 n9 n3 n2)
79 : (move-up-slow slow1-0 n9 n11)
80 : (board slow1-0 p7 n11 n2 n3)
81 : (move-down-slow slow1-0 n11 n9)
82 : (leave slow1-0 p7 n9 n3 n2)
83 : (move-up-slow slow1-0 n9 n11)
84 : (board slow1-0 p10 n11 n2 n3)
85 : (move-down-slow slow1-0 n11 n9)
86 : (leave slow1-0 p10 n9 n3 n2)
87 : (move-up-slow slow1-0 n9 n11)
88 : (board slow1-0 p11 n11 n2 n3)
89 : (move-down-slow slow1-0 n11 n9)
90 : (leave slow1-0 p11 n9 n3 n2)
91 : (move-up-slow slow1-0 n9 n11)
92 : (board slow1-0 p16 n11 n2 n3)
93 : (move-down-slow slow1-0 n11 n9)
94 : (leave slow1-0 p19 n9 n3 n2)
95 : (move-up-slow slow1-0 n9 n12)
96 : (board slow1-0 p0 n12 n2 n3)
97 : (move-down-slow slow1-0 n12 n9)
98 : (leave slow1-0 p16 n9 n3 n2)
99 : (move-up-slow slow1-0 n9 n12)
100 : (board slow1-0 p9 n12 n2 n3)
101 : (move-down-slow slow1-0 n12 n9)
102 : (leave slow1-0 p9 n9 n3 n2)
103 : (move-up-slow slow1-0 n9 n12)
104 : (board slow1-0 p18 n12 n2 n3)
105 : (move-down-slow slow1-0 n12 n9)
106 : (leave slow1-0 p20 n9 n3 n2)
107 : (move-up-slow slow1-0 n9 n14)
108 : (board slow1-0 p21 n14 n2 n3)
109 : (move-down-slow slow1-0 n14 n9)
110 : (leave slow1-0 p21 n9 n3 n2)
111 : (move-up-slow slow1-0 n9 n14)
112 : (board slow1-0 p23 n14 n2 n3)
113 : (move-down-slow slow1-0 n14 n9)
114 : (leave slow1-0 p18 n9 n3 n2)
115 : (move-up-slow slow1-0 n9 n15)
116 : (board slow1-0 p8 n15 n2 n3)
117 : (move-down-slow slow1-0 n15 n9)
118 : (leave slow1-0 p8 n9 n3 n2)
119 : (move-up-slow slow1-0 n9 n15)
120 : (board slow1-0 p12 n15 n2 n3)
121 : (move-down-slow slow1-0 n15 n9)
122 : (leave slow1-0 p0 n9 n3 n2)
123 : (board slow1-0 p18 n9 n2 n3)
124 : (move-up-slow slow1-0 n9 n10)
125 : (leave slow1-0 p18 n10 n3 n2)
126 : (move-down-slow slow1-0 n10 n9)
127 : (board slow1-0 p20 n9 n2 n3)
128 : (move-up-slow slow1-0 n9 n11)
129 : (leave slow1-0 p20 n11 n3 n2)
130 : (move-down-slow slow1-0 n11 n9)
131 : (board slow1-0 p9 n9 n2 n3)
132 : (move-up-slow slow1-0 n9 n11)
133 : (leave slow1-0 p9 n11 n3 n2)
134 : (move-down-slow slow1-0 n11 n9)
135 : (board slow1-0 p4 n9 n2 n3)
136 : (move-up-slow slow1-0 n9 n13)
137 : (leave slow1-0 p4 n13 n3 n2)
138 : (move-down-slow slow1-0 n13 n9)
139 : (board slow1-0 p15 n9 n2 n3)
140 : (move-up-slow slow1-0 n9 n13)
141 : (leave slow1-0 p15 n13 n3 n2)
142 : (move-down-slow slow1-0 n13 n9)
143 : (board slow1-0 p5 n9 n2 n3)
144 : (move-up-slow slow1-0 n9 n14)
145 : (leave slow1-0 p5 n14 n3 n2)
146 : (move-down-slow slow1-0 n14 n9)
147 : (board slow1-0 p0 n9 n2 n3)
148 : (move-up-slow slow1-0 n9 n15)
149 : (leave slow1-0 p0 n15 n3 n2)
150 : (move-down-slow slow1-0 n15 n9)
151 : (board slow1-0 p16 n9 n2 n3)
152 : (move-down-slow slow1-0 n9 n8)
153 : (leave slow1-0 p16 n8 n3 n2)
154 : (move-up-slow slow1-0 n8 n9)
155 : (board slow1-0 p21 n9 n2 n3)
156 : (move-down-slow slow1-0 n9 n8)
157 : (leave slow1-0 p21 n8 n3 n2)
158 : (board slow0-0 p21 n8 n0 n1)
159 : (move-down-slow slow0-0 n8 n3)
160 : (leave slow0-0 p21 n3 n1 n0)
161 : (leave slow1-0 p23 n8 n2 n1)
162 : (move-up-slow slow0-0 n3 n8)
163 : (board slow0-0 p23 n8 n0 n1)
164 : (move-down-slow slow0-0 n8 n3)
165 : (leave slow0-0 p23 n3 n1 n0)
166 : (move-up-slow slow1-0 n8 n9)
167 : (board slow1-0 p8 n9 n1 n2)
168 : (move-down-slow slow1-0 n9 n8)
169 : (leave slow1-0 p8 n8 n2 n1)
170 : (move-up-slow slow0-0 n3 n8)
171 : (board slow0-0 p8 n8 n0 n1)
172 : (move-down-slow slow0-0 n8 n6)
173 : (leave slow0-0 p8 n6 n1 n0)
174 : (leave slow1-0 p12 n8 n1 n0)
175 : (move-up-slow slow0-0 n6 n8)
176 : (board slow0-0 p12 n8 n0 n1)
177 : (move-down-slow slow0-0 n8 n1)
178 : (leave slow0-0 p12 n1 n1 n0)
179 : (move-up-slow slow1-0 n8 n9)
180 : (board slow1-0 p11 n9 n0 n1)
181 : (move-up-slow slow1-0 n9 n10)
182 : (leave slow1-0 p11 n10 n1 n0)
183 : (move-down-slow slow1-0 n10 n9)
184 : (board slow1-0 p2 n9 n0 n1)
185 : (move-up-slow slow1-0 n9 n13)
186 : (leave slow1-0 p2 n13 n1 n0)
187 : (move-down-slow slow1-0 n13 n9)
188 : (board slow1-0 p7 n9 n0 n1)
189 : (move-up-slow slow1-0 n9 n13)
190 : (leave slow1-0 p7 n13 n1 n0)
191 : (move-down-slow slow1-0 n13 n9)
192 : (board slow1-0 p10 n9 n0 n1)
193 : (move-up-slow slow1-0 n9 n13)
194 : (leave slow1-0 p10 n13 n1 n0)
195 : (move-down-slow slow1-0 n13 n9)
196 : (board slow1-0 p14 n9 n0 n1)
197 : (move-up-slow slow1-0 n9 n14)
198 : (leave slow1-0 p14 n14 n1 n0)
199 : (move-down-slow slow