0 : (board plane1 person18 city11)
1 : (fly plane1 city11 city16 fl3 fl2)
2 : (board plane1 person2 city16)
3 : (fly plane1 city16 city6 fl2 fl1)
4 : (board plane1 person4 city6)
5 : (board plane1 person5 city6)
6 : (fly plane1 city6 city0 fl1 fl0)
7 : (refuel plane1 city0 fl0 fl1)
8 : (board plane1 person6 city0)
9 : (fly plane1 city0 city13 fl1 fl0)
10 : (refuel plane1 city13 fl0 fl1)
11 : (board plane1 person9 city13)
12 : (fly plane1 city13 city7 fl1 fl0)
13 : (refuel plane1 city7 fl0 fl1)
14 : (board plane1 person1 city7)
15 : (board plane1 person11 city7)
16 : (fly plane1 city7 city15 fl1 fl0)
17 : (refuel plane1 city15 fl0 fl1)
18 : (board plane1 person12 city15)
19 : (fly plane1 city15 city4 fl1 fl0)
20 : (refuel plane1 city4 fl0 fl1)
21 : (board plane1 person13 city4)
22 : (fly plane1 city4 city14 fl1 fl0)
23 : (refuel plane1 city14 fl0 fl1)
24 : (board plane1 person10 city14)
25 : (board plane1 person14 city14)
26 : (fly plane1 city14 city5 fl1 fl0)
27 : (refuel plane1 city5 fl0 fl1)
28 : (board plane1 person16 city5)
29 : (fly plane1 city5 city10 fl1 fl0)
30 : (refuel plane1 city10 fl0 fl1)
31 : (board plane1 person15 city10)
32 : (board plane1 person17 city10)
33 : (fly plane1 city10 city9 fl1 fl0)
34 : (refuel plane1 city9 fl0 fl1)
35 : (board plane1 person3 city9)
36 : (board plane1 person19 city9)
37 : (fly plane1 city9 city3 fl1 fl0)
38 : (board plane1 person20 city3)
39 : (refuel plane1 city3 fl0 fl1)
40 : (fly plane1 city3 city7 fl1 fl0)
41 : (refuel plane1 city7 fl0 fl1)
42 : (debark plane1 person3 city7)
43 : (fly plane1 city7 city13 fl1 fl0)
44 : (refuel plane1 city13 fl0 fl1)
45 : (debark plane1 person6 city13)
46 : (fly plane1 city13 city16 fl1 fl0)
47 : (refuel plane1 city16 fl0 fl1)
48 : (debark plane1 person10 city16)
49 : (fly plane1 city16 city6 fl1 fl0)
50 : (refuel plane1 city6 fl0 fl1)
51 : (debark plane1 person18 city6)
52 : (debark plane1 person11 city6)
53 : (fly plane1 city6 city4 fl1 fl0)
54 : (refuel plane1 city4 fl0 fl1)
