0 : (move-down-fast fast0 n8 n0)
1 : (board fast0 p3 n0 n0 n1)
2 : (move-up-fast fast0 n0 n2)
3 : (leave fast0 p3 n2 n1 n0)
4 : (move-down-slow slow0-0 n4 n3)
5 : (board slow0-0 p0 n3 n0 n1)
6 : (move-up-slow slow0-0 n3 n4)
7 : (leave slow0-0 p0 n4 n1 n0)
8 : (move-up-slow slow1-0 n4 n7)
9 : (board slow1-0 p2 n7 n0 n1)
10 : (move-down-slow slow1-0 n7 n6)
11 : (leave slow1-0 p2 n6 n1 n0)
12 : (move-down-slow slow0-0 n4 n1)
13 : (board slow0-0 p1 n1 n0 n1)
14 : (move-up-slow slow0-0 n1 n4)
15 : (leave slow0-0 p1 n4 n1 n0)
16 : (move-down-slow slow1-0 n6 n4)
17 : (board slow1-0 p1 n4 n0 n1)
18 : (move-up-slow slow1-0 n4 n5)
19 : (leave slow1-0 p1 n5 n1 n0)
