0 : (board fast0 p2 n6 n0 n1)
1 : (move-up-fast fast0 n6 n8)
2 : (board fast0 p7 n8 n1 n2)
3 : (move-down-fast fast0 n8 n0)
4 : (board fast0 p6 n0 n2 n3)
5 : (leave fast0 p2 n0 n3 n2)
6 : (move-up-fast fast0 n0 n4)
7 : (board fast0 p3 n4 n2 n3)
8 : (move-up-fast fast0 n4 n8)
9 : (leave fast0 p3 n8 n3 n2)
10 : (move-down-fast fast0 n8 n4)
11 : (board fast0 p5 n4 n2 n3)
12 : (move-up-fast fast0 n4 n6)
13 : (leave fast0 p5 n6 n3 n2)
14 : (move-down-fast fast0 n6 n2)
15 : (leave fast0 p7 n2 n2 n1)
16 : (leave fast0 p6 n2 n1 n0)
17 : (board slow0-0 p0 n3 n0 n1)
18 : (move-down-slow slow0-0 n3 n0)
19 : (board slow0-0 p2 n0 n1 n2)
20 : (move-up-slow slow0-0 n0 n3)
21 : (leave slow0-0 p2 n3 n2 n1)
22 : (move-down-slow slow0-0 n3 n1)
23 : (leave slow0-0 p0 n1 n1 n0)
24 : (board slow1-0 p1 n8 n0 n1)
25 : (move-down-slow slow1-0 n8 n5)
26 : (board slow1-0 p4 n5 n1 n2)
27 : (leave slow1-0 p1 n5 n2 n1)
28 : (move-up-slow slow1-0 n5 n8)
29 : (leave slow1-0 p4 n8 n1 n0)
30 : (move-up-fast fast0 n2 n8)
31 : (board fast0 p4 n8 n0 n1)
32 : (move-down-fast fast0 n8 n0)
33 : (leave fast0 p4 n0 n1 n0)
